id;ten_lop
1;navigating Web
2;killer Car Lodge
3;Corners
4;quantifying
5;Gorgeous Concrete calculating
6;magenta zero
7;action-items
8;interface Quality hacking
9;Locks withdrawal Account
10;maximized
